module server

go 1.20

require (
	github.com/felixge/httpsnoop v1.0.1 // indirect
	github.com/gorilla/handlers v1.5.1 // indirect
	github.com/gorilla/mux v1.8.0 // indirect
	github.com/joho/godotenv v1.5.1 // indirect
	github.com/lib/pq v1.10.7 // indirect
)
